dvals= 0.5 1 1.5 2 2.5 3 3.5 4 4.5 5 5.5 6 6.5 7 7.5 8 8.5 9 9.5 10
Losses= 5.010052746001747e-07 0.0 0.0 0.0 0.0 9.480908147452283e-08 0.0 7.152485270722764e-09 1.8082822350606875e-08 1.192092865393013e-11 2.658335773730869e-09 6.8186194468466965e-09 1.192092865393013e-11 6.677011299416336e-08 2.8525887501018587e-06 2.9729219974683474e-08 2.1576691544566984e-09 1.4959775640477346e-08 4.809478468814632e-07 7.118810003703402e-07
Accuracies= 1.0 1.0 1.0 1.0 1.0 1.0 1.0 1.0 1.0 1.0 1.0 1.0 1.0 1.0 1.0 1.0 1.0 1.0 1.0 1.0
