dvals= 0.5 1 1.5 2 2.5 3 3.5 4 4.5 5 5.5 6 6.5 7 7.5 8 8.5 9 9.5 10
Losses= 2.968479633331299 0.005169830285012722 0.0 0.0 0.0 0.0 0.0 2.3841855573136783e-11 0.0 0.0 0.0 3.705558881961224e-08 7.736502993793692e-09 0.0009586706291884184 0.0013191691832616925 0.00014586518227588385 4.970936107184798e-09 3.137056182822562e-06 0.0002957457327283919 0.0022563813254237175
Accuracies= 0.5759999752044678 0.9984999895095825 1.0 1.0 1.0 1.0 1.0 1.0 1.0 1.0 1.0 1.0 1.0 0.9998999834060669 0.9997000098228455 0.9998999834060669 1.0 1.0 0.9998999834060669 0.9995999932289124
