dvals= 0.5 1 1.5 2 2.5 3 3.5 4 4.5 5 5.5 6 6.5 7 7.5 8 8.5 9 9.5 10
Losses= 0.04550258442759514 0.025676637887954712 0.05657633766531944 0.020566260442137718 0.04952109232544899 0.03833623602986336 0.031088033691048622 0.02469329908490181 0.016312293708324432 0.039828620851039886 0.2101646065711975 0.04582088068127632 0.08847594261169434 0.25645554065704346 0.24191337823867798 0.22862988710403442 0.17885413765907288 0.04819715768098831 0.057453662157058716 0.23831823468208313
Accuracies= 0.9850000143051147 0.9934999942779541 0.980400025844574 0.9939000010490417 0.9814000129699707 0.9860000014305115 0.9896000027656555 0.9921000003814697 0.9947999715805054 0.986299991607666 0.9348000288009644 0.9847999811172485 0.972599983215332 0.9240000247955322 0.9291999936103821 0.9300000071525574 0.9444000124931335 0.984000027179718 0.9811000227928162 0.9271000027656555
