dvals= 0.5 1 1.5 2 2.5 3 3.5 4 4.5 5 5.5 6 6.5 7 7.5 8 8.5 9 9.5 10
Losses= 0.8475413918495178 0.09498092532157898 0.019948353990912437 0.0015899231657385826 5.445701026474126e-05 0.00012041548325214535 0.0005676558939740062 2.931099515990354e-05 7.213167009467725e-06 3.402421498321928e-05 2.5674102289485745e-05 1.8315880879526958e-05 2.060141196125187e-05 3.182805085089058e-05 3.527781518641859e-05 3.9552491216454655e-05 6.0777401813538745e-05 3.495546116027981e-05 5.245461579761468e-05 5.154918471816927e-05
Accuracies= 0.48980000615119934 0.9897000193595886 0.9991999864578247 1.0 1.0 1.0 1.0 1.0 1.0 1.0 1.0 1.0 1.0 1.0 1.0 1.0 1.0 1.0 1.0 1.0
