dvals= 0.5 1 1.5 2 2.5 3 3.5 4 4.5 5 5.5 6 6.5 7 7.5 8 8.5 9 9.5 10
Losses= 22.813451766967773 33.51213455200195 33.04721450805664 17.671403884887695 4.191096305847168 16.324142456054688 0.0008858131477609277 0.0 0.0 0.0 0.0 0.0 0.0 0.0 0.0 4.172318879280823e-10 0.0 0.0 0.0 0.0
Accuracies= 0.0 0.0 0.0 0.0010000000474974513 0.6514999866485596 0.039900001138448715 0.9997000098228455 1.0 1.0 1.0 1.0 1.0 1.0 1.0 1.0 1.0 1.0 1.0 1.0 1.0
