dvals= 0.5 1 1.5 2 2.5 3 3.5 4 4.5 5 5.5 6 6.5 7 7.5 8 8.5 9 9.5 10
Losses= 32.17276382446289 26.713119506835938 22.235071182250977 8.794912338256836 3.8033339977264404 0.35664546489715576 0.002580632921308279 0.0 6.387659141182667e-06 0.0 0.0 0.0 0.0 0.0 0.0 0.0 0.0 0.0 0.0 0.0
Accuracies= 0.0 0.0 0.000699999975040555 0.18359999358654022 0.5486999750137329 0.9246000051498413 0.9990000128746033 1.0 1.0 1.0 1.0 1.0 1.0 1.0 1.0 1.0 1.0 1.0 1.0 1.0
