dvals= 0.5 1 1.5 2 2.5 3 3.5 4 4.5 5 5.5 6 6.5 7 7.5 8 8.5 9 9.5 10
Losses= 0.00010585848212940618 9.536738759807761e-11 0.0 0.0 0.0 0.002126614097505808 0.006602046079933643 0.048762064427137375 0.08934074640274048 0.05376685783267021 0.27827557921409607 0.28276363015174866 0.289231538772583 0.6393298506736755 2.2013566493988037 0.5930660963058472 0.5203064680099487 0.24775004386901855 5.046712875366211 0.4489684998989105
Accuracies= 0.9998999834060669 1.0 1.0 1.0 1.0 0.9997000098228455 0.9980000257492065 0.9886000156402588 0.9857000112533569 0.9876000285148621 0.9550999999046326 0.9513000249862671 0.9496999979019165 0.9070000052452087 0.7657999992370605 0.9258000254631042 0.9154000282287598 0.9593999981880188 0.5544000267982483 0.9316999912261963
