dvals= 0.5 1 1.5 2 2.5 3 3.5 4 4.5 5 5.5 6 6.5 7 7.5 8 8.5 9 9.5 10
Losses= 0.00243414961732924 0.0015933545073494315 0.14642062783241272 0.12544319033622742 0.005543803330510855 0.06930701434612274 0.0 0.0038630252238363028 0.03674827143549919 0.018941158428788185 0.01033755298703909 0.010581448674201965 0.00019367781351320446 1.6808324289740995e-05 0.011334573850035667 0.00692793820053339 0.0004210317274555564 0.02086329273879528 0.012480192817747593 0.006597806699573994
Accuracies= 0.9997000098228455 0.9994000196456909 0.9783999919891357 0.9818000197410583 0.9990000128746033 0.9927999973297119 1.0 0.9994000196456909 0.9954000115394592 0.9975000023841858 0.9984999895095825 0.9984999895095825 0.9998999834060669 1.0 0.9984999895095825 0.9993000030517578 0.9998000264167786 0.9977999925613403 0.9986000061035156 0.9993000030517578
