dvals= 0.5 1 1.5 2 2.5 3 3.5 4 4.5 5 5.5 6 6.5 7 7.5 8 8.5 9 9.5 10
Losses= 0.0012620424386113882 0.0026396452449262142 5.352475795916689e-09 1.6689287452020807e-10 0.0 0.0 0.0 0.0 0.0 0.0 5.960464066756543e-11 0.0 1.3113020391752883e-10 9.059903938180014e-10 1.3113019003974102e-10 5.00678998260895e-10 3.862380637542628e-09 5.483626330793356e-10 5.722045615108584e-10 5.960463789200787e-10
Accuracies= 0.9997000098228455 0.9991000294685364 1.0 1.0 1.0 1.0 1.0 1.0 1.0 1.0 1.0 1.0 1.0 1.0 1.0 1.0 1.0 1.0 1.0 1.0
