dvals= 0.5 1 1.5 2 2.5 3 3.5 4 4.5 5 5.5 6 6.5 7 7.5 8 8.5 9 9.5 10
Losses= 1.2952401638031006 0.04715432971715927 0.0002116459800163284 0.0 0.0 0.0 1.1682502742971224e-09 0.0 0.0 0.0 0.0 0.0 8.702277232153222e-10 0.0 0.0 1.2636184321124233e-09 3.576278440053926e-10 2.2172925717711678e-09 2.1588800080962756e-08 1.2902020785077184e-07
Accuracies= 0.4350999891757965 0.980400025844574 1.0 1.0 1.0 1.0 1.0 1.0 1.0 1.0 1.0 1.0 1.0 1.0 1.0 1.0 1.0 1.0 1.0 1.0
