dvals= 0.5 1 1.5 2 2.5 3 3.5 4 4.5 5 5.5 6 6.5 7 7.5 8 8.5 9 9.5 10
Losses= 0.005922348238527775 0.025190332904458046 0.20170529186725616 0.017218511551618576 0.025969788432121277 0.013221604749560356 0.005160588305443525 0.005676840431988239 0.022166725248098373 0.014477469958364964 0.04431026801466942 0.0109598059207201 0.010458982549607754 0.026233553886413574 0.03268592432141304 0.012290086597204208 0.011033682152628899 0.012736464850604534 0.009283673949539661 0.016055705025792122
Accuracies= 0.9998999834060669 0.9966999888420105 0.9236000180244446 0.9980999827384949 0.9972000122070312 0.9991000294685364 0.9998999834060669 0.9997000098228455 0.9951000213623047 0.9987000226974487 0.9894000291824341 0.9994000196456909 0.9997000098228455 0.9945999979972839 0.9918000102043152 0.9994000196456909 0.9990000128746033 0.9988999962806702 0.9994999766349792 0.998199999332428
